\contentsline {section}{\numberline {1}Introduction}{5}
\contentsline {section}{\numberline {2}The goal and the available components}{5}
\contentsline {section}{\numberline {3}Some use cases}{8}
\contentsline {subsection}{\numberline {3.1}DPM and dCache via WebDAV}{8}
\contentsline {subsection}{\numberline {3.2}Add third-party storage farms}{9}
\contentsline {subsection}{\numberline {3.3}Create a small local federation of close sites sharing storage}{9}
\contentsline {subsection}{\numberline {3.4}Add resources managed by one or more replica catalogues}{10}
\contentsline {subsection}{\numberline {3.5}Federating file caches}{11}
\contentsline {subsection}{\numberline {3.6}Allow the system to apply geography-aware redirection choices}{11}
\contentsline {section}{\numberline {4}The system}{12}
\contentsline {subsection}{\numberline {4.1}Two clients issue a stat() request}{14}
\contentsline {subsection}{\numberline {4.2}Two clients request the full list of the replicas of a file}{15}
\contentsline {subsection}{\numberline {4.3}In-memory volatile namespace and caching}{16}
\contentsline {subsection}{\numberline {4.4}Simple name translations}{18}
\contentsline {section}{\numberline {5}Typical deployment of a Dynamic Federations frontend}{19}
\contentsline {section}{\numberline {6}Configuration parameters reference}{20}
\contentsline {subsection}{\numberline {6.1}Ugr core configuration}{22}
\contentsline {subsubsection}{\numberline {6.1.1}INCLUDE}{22}
\contentsline {subsubsection}{\numberline {6.1.2}glb.debug}{22}
\contentsline {subsubsection}{\numberline {6.1.3}glb.debug.components[]}{23}
\contentsline {subsubsection}{\numberline {6.1.4}glb.addchildtoparentonput}{23}
\contentsline {subsubsection}{\numberline {6.1.5}glb.addchildtoparentonstat}{23}
\contentsline {subsubsection}{\numberline {6.1.6}glb.filepullhook}{24}
\contentsline {subsubsection}{\numberline {6.1.7}glb.filepullhook.usereplicaurl}{24}
\contentsline {subsubsection}{\numberline {6.1.8}glb.filepushhook}{25}
\contentsline {subsubsection}{\numberline {6.1.9}glb.filepull.header2params[]}{25}
\contentsline {subsubsection}{\numberline {6.1.10}glb.filepush.header2params[]}{25}
\contentsline {subsubsection}{\numberline {6.1.11}glb.locplugin}{26}
\contentsline {subsubsection}{\numberline {6.1.12}glb.waittimeout}{26}
\contentsline {subsubsection}{\numberline {6.1.13}glb.maxlistitems}{27}
\contentsline {subsubsection}{\numberline {6.1.14}glb.filterplugin}{27}
\contentsline {subsection}{\numberline {6.2}Global name translation}{27}
\contentsline {subsubsection}{\numberline {6.2.1}glb.n2n\_pfx}{27}
\contentsline {subsubsection}{\numberline {6.2.2}glb.n2n\_newpfx}{28}
\contentsline {subsection}{\numberline {6.3}Slave plugins and replica translators}{28}
\contentsline {subsection}{\numberline {6.4}Plugin-level filename prefix translation}{29}
\contentsline {subsubsection}{\numberline {6.4.1}Example: Translate SRM TURLs into HTTP URLs}{29}
\contentsline {subsubsection}{\numberline {6.4.2}locplugin.$<$ID$>$.pfxmultiply}{30}
\contentsline {subsubsection}{\numberline {6.4.3}locplugin.$<$ID$>$.xlatepfx}{31}
\contentsline {subsection}{\numberline {6.5}Infohandler advanced parameters}{33}
\contentsline {subsubsection}{\numberline {6.5.1}infohandler.maxitems}{33}
\contentsline {subsubsection}{\numberline {6.5.2}infohandler.itemttl}{33}
\contentsline {subsubsection}{\numberline {6.5.3}infohandler.itemmaxttl}{33}
\contentsline {subsubsection}{\numberline {6.5.4}infohandler.itemttl\_negative}{33}
\contentsline {subsubsection}{\numberline {6.5.5}infohandler.useextcache}{34}
\contentsline {subsection}{\numberline {6.6}extcache.memcached.server[]}{34}
\contentsline {subsubsection}{\numberline {6.6.1}extcache.memcached.ttl}{34}
\contentsline {subsubsection}{\numberline {6.6.2}extcache.memcached.useBinaryProtocol}{35}
\contentsline {subsection}{\numberline {6.7}Authorization of groups and users}{35}
\contentsline {subsubsection}{\numberline {6.7.1}glb.allowusers[]}{36}
\contentsline {subsubsection}{\numberline {6.7.2}glb.allowgroups[]}{36}
\contentsline {subsubsection}{\numberline {6.7.3}glb.authorizationplugin}{37}
\contentsline {subsubsection}{\numberline {6.7.4}The Python authorization plugin}{38}
\contentsline {subsection}{\numberline {6.8}Location Plugin}{40}
\contentsline {subsubsection}{\numberline {6.8.1}locplugin.$<$ID$>$.listable}{40}
\contentsline {subsubsection}{\numberline {6.8.2}locplugin.$<$ID$>$.readable}{40}
\contentsline {subsubsection}{\numberline {6.8.3}locplugin.$<$ID$>$.writable}{41}
\contentsline {subsubsection}{\numberline {6.8.4}locplugin.$<$ID$>$.max\_latency}{41}
\contentsline {subsubsection}{\numberline {6.8.5}locplugin.$<$ID$>$.candochecksums}{41}
\contentsline {subsection}{\numberline {6.9}DAV and HTTP plugin}{42}
\contentsline {subsubsection}{\numberline {6.9.1}locplugin.$<$ID$>$.ssl\_check}{43}
\contentsline {subsubsection}{\numberline {6.9.2}locplugin.$<$ID$>$.ca\_path}{43}
\contentsline {subsubsection}{\numberline {6.9.3}locplugin.$<$ID$>$.cli\_type}{43}
\contentsline {subsubsection}{\numberline {6.9.4}locplugin.$<$ID$>$.cli\_private\_key}{43}
\contentsline {subsubsection}{\numberline {6.9.5}locplugin.$<$ID$>$.cli\_certificate}{44}
\contentsline {subsubsection}{\numberline {6.9.6}locplugin.$<$ID$>$.conn\_timeout}{44}
\contentsline {subsubsection}{\numberline {6.9.7}locplugin.$<$ID$>$.custom\_header[]}{44}
\contentsline {subsubsection}{\numberline {6.9.8}locplugin.$<$ID$>$.ops\_timeout}{44}
\contentsline {subsubsection}{\numberline {6.9.9}locplugin.$<$ID$>$.status\_checking}{45}
\contentsline {subsubsection}{\numberline {6.9.10}locplugin.$<$ID$>$.status\_checker\_frequency}{45}
\contentsline {subsubsection}{\numberline {6.9.11}locplugin.$<$ID$>$.auth\_login}{45}
\contentsline {subsubsection}{\numberline {6.9.12}locplugin.$<$ID$>$.auth\_passwd}{45}
\contentsline {subsubsection}{\numberline {6.9.13}locplugin.$<$ID$>$.metalink\_support}{45}
\contentsline {subsection}{\numberline {6.10}S3 plugin}{46}
\contentsline {subsubsection}{\numberline {6.10.1}locplugin.$<$ID$>$.s3.priv\_key}{46}
\contentsline {subsubsection}{\numberline {6.10.2}locplugin.$<$ID$>$.s3.pub\_key}{46}
\contentsline {subsubsection}{\numberline {6.10.3}locplugin.$<$ID$>$.s3.region}{47}
\contentsline {subsubsection}{\numberline {6.10.4}locplugin.$<$ID$>$.s3.signaturevalidity}{47}
\contentsline {subsubsection}{\numberline {6.10.5}locplugin.$<$ID$>$.s3.alternate}{47}
\contentsline {subsubsection}{\numberline {6.10.6}locplugin.$<$ID$>$.checksumcalc}{48}
\contentsline {subsubsection}{\numberline {6.10.7}locplugin.$<$ID$>$.checksumcalctimeout}{49}
\contentsline {subsubsection}{\numberline {6.10.8}A note on S3 multipart uploads}{49}
\contentsline {subsection}{\numberline {6.11}A note on third party copy requests}{50}
\contentsline {subsection}{\numberline {6.12}GeoIP plugin for geographical information (obsolete)}{51}
\contentsline {subsubsection}{\numberline {6.12.1}glb.filterplugin.geoip.fuzz}{52}
\contentsline {subsection}{\numberline {6.13}MaxMindDB plugin for geographical information}{53}
\contentsline {subsubsection}{\numberline {6.13.1}glb.filterplugin.mmdb.fuzz}{53}
\contentsline {subsection}{\numberline {6.14}Microsoft Azure plugin}{54}
\contentsline {subsubsection}{\numberline {6.14.1}locplugin.$<$ID$>$.azure.key}{54}
\contentsline {subsubsection}{\numberline {6.14.2}locplugin.$<$ID$>$.azure.signaturevalidity}{54}
\contentsline {subsection}{\numberline {6.15}DAVrucio plugin}{55}
\contentsline {subsubsection}{\numberline {6.15.1}locplugin.$<$ID$>$.xlatepfx\_ruciohash}{56}
\contentsline {subsection}{\numberline {6.16}DMLite client plugin}{57}
